{
  "connection": "default",
  "collectionName": "cocktails",
  "info": {
    "name": "cocktail",
    "description": ""
  },
  "options": {
    "increments": true,
    "timestamps": [
      "created_at",
      "updated_at"
    ],
    "comment": ""
  },
  "attributes": {
    "name": {
      "type": "string"
    },
    "sourceImg": {
      "model": "file",
      "via": "related",
      "plugin": "upload"
    },
    "instructions": {
      "type": "string"
    },
    "category": {
      "model": "category",
      "via": "cocktails"
    },
    "ingredients": {
      "collection": "ingredient",
      "via": "cocktail"
    }
  }
}